module gitlab.com/Tomy2e/test-lbc

go 1.18

require (
	github.com/DATA-DOG/go-sqlmock v1.5.0
	github.com/gin-gonic/gin v1.8.1
	github.com/go-ozzo/ozzo-validation/v4 v4.3.0
	github.com/matoous/go-nanoid/v2 v2.0.0
	github.com/texttheater/golang-levenshtein/levenshtein v0.0.0-20200805054039-cae8b0eaed6c
	gopkg.in/Regis24GmbH/go-diacritics.v2 v2.0.2
	gorm.io/driver/mysql v1.3.6
	gorm.io/gorm v1.23.8
)

require (
	github.com/gin-contrib/sse v0.1.0 // indirect
	github.com/go-playground/locales v0.14.0 // indirect
	github.com/go-playground/universal-translator v0.18.0 // indirect
	github.com/go-playground/validator/v10 v10.10.0 // indirect
	github.com/go-sql-driver/mysql v1.6.0 // indirect
	github.com/goccy/go-json v0.9.7 // indirect
	github.com/jinzhu/inflection v1.0.0 // indirect
	github.com/jinzhu/now v1.1.5 // indirect
	github.com/json-iterator/go v1.1.12 // indirect
	github.com/leodido/go-urn v1.2.1 // indirect
	github.com/mattn/go-isatty v0.0.14 // indirect
	github.com/modern-go/concurrent v0.0.0-20180228061459-e0a39a4cb421 // indirect
	github.com/modern-go/reflect2 v1.0.2 // indirect
	github.com/pelletier/go-toml/v2 v2.0.1 // indirect
	github.com/ugorji/go/codec v1.2.7 // indirect
	golang.org/x/crypto v0.0.0-20210711020723-a769d52b0f97 // indirect
	golang.org/x/net v0.0.0-20210226172049-e18ecbb05110 // indirect
	golang.org/x/sys v0.0.0-20210806184541-e5e7981a1069 // indirect
	golang.org/x/text v0.3.6 // indirect
	google.golang.org/protobuf v1.28.0 // indirect
	gopkg.in/yaml.v2 v2.4.0 // indirect
)
